# Wavefront OBJ file written 2022-05-23T23:08:41
o aerofoil_edgeMesh

# points : 512
# lines  : 513

# <points count="512">
v 1 -1 5.35220259223479e-08
v 1.00000011920929 0 -1.71438330198725e-06
v 0.106312125921249 -1 0.0475837141275406
v 0.0983855128288269 -1 0.0462896749377251
v 0.0909248739480972 0 0.0449703149497509
v 0.0983855128288269 0 0.0462896749377251
v 0.106312125921249 0 0.0475837141275406
v 0.0909248739480972 -1 0.0449703149497509
v 0.114722065627575 -1 0.0488466247916222
v 0.083912305533886 0 0.0436310656368732
v 0.114722065627575 0 0.0488466247916222
v 0.083912305533886 -1 0.0436310656368732
v 0.123631961643696 -1 0.0500722303986549
v 0.077329583466053 0 0.0422769598662853
v 0.123631961643696 0 0.0500722303986549
v 0.077329583466053 -1 0.0422769598662853
v 0.133057460188866 -1 0.0512540265917778
v 0.0711583122611046 0 0.0409126430749893
v 0.133057460188866 0 0.0512540265917778
v 0.0711583122611046 -1 0.0409126430749893
v 0.14301298558712 -1 0.0523852147161961
v 0.0653800964355469 0 0.0395423620939255
v 0.14301298558712 0 0.0523852147161961
v 0.0653800964355469 -1 0.0395423620939255
v 0.153511464595795 -1 0.0534587614238262
v 0.0599766708910465 0 0.0381699949502945
v 0.153511464595795 0 0.0534587614238262
v 0.0599766708910465 -1 0.0381699949502945
v 0.16456401348114 -1 0.0544674545526505
v 0.054930005222559 0 0.0367990396916866
v 0.16456401348114 0 0.0544674545526505
v 0.054930005222559 -1 0.0367990396916866
v 0.176179736852646 -1 0.0554039962589741
v 0.0502224117517471 0 0.0354326665401459
v 0.176179736852646 0 0.0554039962589741
v 0.0502224117517471 -1 0.0354326665401459
v 0.188365310430527 -1 0.0562610812485218
v 0.0458366312086582 0 0.0340737141668797
v 0.188365310430527 0 0.0562610812485218
v 0.0458366312086582 -1 0.0340737141668797
v 0.201124802231789 -1 0.0570315048098564
v 0.0417558774352074 0 0.0327247232198715
v 0.201124802231789 0 0.0570315048098564
v 0.0417558774352074 -1 0.0327247232198715
v 0.214459270238876 -1 0.0577082745730877
v 0.0379639118909836 0 0.0313879698514938
v 0.214459270238876 0 0.0577082745730877
v 0.0379639118909836 -1 0.0313879698514938
v 0.228366568684578 -1 0.0582847222685814
v 0.034445084631443 0 0.0300654731690884
v 0.228366568684578 0 0.0582847222685814
v 0.034445084631443 -1 0.0300654731690884
v 0.242841064929962 -1 0.0587546452879906
v 0.031184334307909 0 0.0287590529769659
v 0.242841064929962 0 0.0587546452879906
v 0.031184334307909 -1 0.0287590529769659
v 0.257873356342316 -1 0.0591124184429646
v 0.0281672384589911 0 0.0274703279137611
v 0.257873356342316 0 0.0591124184429646
v 0.0281672384589911 -1 0.0274703279137611
v 0.273450136184692 -1 0.0593531168997288
v 0.0253799986094236 0 0.0262007638812065
v 0.273450136184692 0 0.0593531168997288
v 0.0253799986094236 -1 0.0262007638812065
v 0.28955402970314 -1 0.0594726502895355
v 0.0228094384074211 0 0.0249517019838095
v 0.28955402970314 0 0.0594726502895355
v 0.0228094384074211 -1 0.0249517019838095
v 0.306163549423218 -1 0.0594678483903408
v 0.0204430371522903 0 0.0237243622541428
v 0.306163549423218 0 0.0594678483903408
v 0.0204430371522903 -1 0.0237243622541428
v 0.323252826929092 -1 0.0593365617096424
v 0.0182688571512699 0 0.0225199013948441
v 0.323252826929092 0 0.0593365617096424
v 0.0182688571512699 -1 0.0225199013948441
v 0.340792000293732 -1 0.0590777434408665
v 0.016275517642498 0 0.0213394314050674
v 0.340792000293732 0 0.0590777434408665
v 0.016275517642498 -1 0.0213394314050674
v 0.358746975660324 -1 0.0586914829909801
v 0.0144522013142705 0 0.020184027031064
v 0.358746975660324 0 0.0586914829909801
v 0.0144522013142705 -1 0.020184027031064
v 0.377079784870148 -1 0.0581790432333946
v 0.0127887176349759 0 0.0190547257661819
v 0.377079784870148 0 0.0581790432333946
v 0.0127887176349759 -1 0.0190547257661819
v 0.395748764276505 -1 0.0575428530573845
v 0.0112751601263881 0 0.0179526265710592
v 0.395748764276505 0 0.0575428530573845
v 0.0112751601263881 -1 0.0179526265710592
v 0.414708882570267 -1 0.0567864887416363
v 0.00990227982401848 0 0.0168788116425276
v 0.414708882570267 0 0.0567864887416363
v 0.00990227982401848 -1 0.0168788116425276
v 0.433912068605423 -1 0.0559145994484425
v 0.00866097770631313 0 0.0158343259245157
v 0.433912068605423 0 0.0559145994484425
v 0.00866097770631313 -1 0.0158343259245157
v 0.453307747840881 -1 0.054932851344347
v 0.00754278665408492 0 0.0148204304277897
v 0.453307747840881 0 0.054932851344347
v 0.00754278665408492 -1 0.0148204304277897
v 0.472843319177628 -1 0.0538478158414364
v 0.0065392623655498 0 0.0138380983844399
v 0.472843319177628 0 0.0538478158414364
v 0.0065392623655498 -1 0.0138380983844399
v 0.492464601993561 -1 0.0526668429374695
v 0.00564248533919454 0 0.0128885805606842
v 0.492464601993561 0 0.0526668429374695
v 0.00564248533919454 -1 0.0128885805606842
v 0.512116611003876 -1 0.0513979494571686
v 0.0048445500433445 0 0.0119728241115808
v 0.512116611003876 0 0.0513979494571686
v 0.0048445500433445 -1 0.0119728241115808
v 0.531743943691254 -1 0.0500496700406075
v 0.00413796724751592 0 0.0110919270664454
v 0.531743943691254 0 0.0500496700406075
v 0.00413796724751592 -1 0.0110919270664454
v 0.551291584968567 -1 0.0486309081315994
v 0.00351531989872456 0 0.0102467136457562
v 0.551291584968567 0 0.0486309081315994
v 0.00351531989872456 -1 0.0102467136457562
v 0.570705413818359 -1 0.0471508093178272
v 0.00296944170258939 0 0.00943789072334766
v 0.570705413818359 0 0.0471508093178272
v 0.00296944170258939 -1 0.00943789072334766
v 0.589932799339294 -1 0.045618612319231
v 0.00249343411996961 0 0.0086660198867321
v 0.589932799339294 0 0.045618612319231
v 0.00249343411996961 -1 0.0086660198867321
v 0.608923077583313 -1 0.0440435297787189
v 0.0020806232932955 0 0.00793139729648829
v 0.608923077583313 0 0.0440435297787189
v 0.0020806232932955 -1 0.00793139729648829
v 0.627628266811371 -1 0.0424346290528774
v 0.00172462302725762 0 0.00723407650366426
v 0.627628266811371 0 0.0424346290528774
v 0.00172462302725762 -1 0.00723407650366426
v 0.646003305912018 -1 0.0408007316291332
v 0.00141937786247581 0 0.00657386006787419
v 0.646003305912018 0 0.0408007316291332
v 0.00141937786247581 -1 0.00657386006787419
v 0.664006590843201 -1 0.0391503237187862
v 0.00115919311065227 0 0.00595030002295971
v 0.664006590843201 0 0.0391503237187862
v 0.00115919311065227 -1 0.00595030002295971
v 0.681600093841553 -1 0.0374914929270744
v 0.000938764249440283 0 0.00536270951852202
v 0.681600093841553 0 0.0374914929270744
v 0.000938764249440283 -1 0.00536270951852202
v 0.698749959468842 -1 0.0358318574726582
v 0.000753189320676029 0 0.00481017725542188
v 0.698749959468842 0 0.0358318574726582
v 0.000753189320676029 -1 0.00481017725542188
v 0.715426206588745 -1 0.0341785214841366
v 0.000597992271650583 0 0.00429161079227924
v 0.715426206588745 0 0.0341785214841366
v 0.000597992271650583 -1 0.00429161079227924
v 0.731603145599365 -1 0.0325380638241768
v 0.00046912845573388 0 0.00380577123723924
v 0.731603145599365 0 0.0325380638241768
v 0.00046912845573388 -1 0.00380577123723924
v 0.747259438037872 -1 0.0309164896607399
v 0.000362954306183383 0 0.00335128861479461
v 0.747259438037872 0 0.0309164896607399
v 0.000362954306183383 -1 0.00335128861479461
v 0.762377738952637 -1 0.0293192379176617
v 0.000276236009085551 0 0.00292671890929341
v 0.762377738952637 0 0.0293192379176617
v 0.000276236009085551 -1 0.00292671890929341
v 0.776944935321808 -1 0.027751175686717
v 0.000206114040338434 0 0.00253056362271309
v 0.776944935321808 0 0.027751175686717
v 0.000206114040338434 -1 0.00253056362271309
v 0.790951788425446 -1 0.0262166019529104
v 0.000150078616570681 0 0.0021612998098135
v 0.790951788425446 0 0.0262166019529104
v 0.000150078616570681 -1 0.0021612998098135
v 0.804392755031586 -1 0.0247192606329918
v 0.000105940409412142 0 0.00181740475818515
v 0.804392755031586 0 0.0247192606329918
v 0.000105940409412142 -1 0.00181740475818515
v 0.817265808582306 -1 0.0232623629271984
v 7.18032752047293e-05 0 0.00149737694300711
v 0.817265808582306 0 0.0232623629271984
v 7.18032752047293e-05 -1 0.00149737694300711
v 0.829572141170502 -1 0.0218485947698355
v 4.60293413198087e-05 0 0.0011997491819784
v 0.829572141170502 0 0.0218485947698355
v 4.60293413198087e-05 -1 0.0011997491819784
v 0.841315984725952 -1 0.0204801559448242
v 2.72127599600935e-05 0 0.000923102430533618
v 0.841315984725952 0 0.0204801559448242
v 2.72127599600935e-05 -1 0.000923102430533618
v 0.852504134178162 -1 0.019158786162734
v 1.41506270665559e-05 0 0.00066607299959287
v 0.852504134178162 0 0.019158786162734
v 1.41506270665559e-05 -1 0.00066607299959287
v 0.863145709037781 -1 0.0178857818245888
v 5.81860649617738e-06 0 0.000427359249442816
v 0.863145709037781 0 0.0178857818245888
v 5.81860649617738e-06 -1 0.000427359249442816
v 0.873252034187317 -1 0.0166620425879955
v 1.34691686071164e-06 0 0.000205724747502245
v 0.873252034187317 0 0.0166620425879955
v 1.34691686071164e-06 -1 0.000205724747502245
v 0.882836043834686 -1 0.0154880965128541
v 0 0 0
v 0.882836043834686 0 0.0154880965128541
v 0 -1 0
v 0.891912221908569 -1 0.0143641317263246
v 1.34691686071164e-06 0 -0.000205724747502245
v 0.891912221908569 0 0.0143641317263246
v 1.34691686071164e-06 -1 -0.000205724747502245
v 0.900496244430542 -1 0.0132900308817625
v 5.81860649617738e-06 0 -0.000427359249442816
v 0.900496244430542 0 0.0132900308817625
v 5.81860649617738e-06 -1 -0.000427359249442816
v 0.908604919910431 -1 0.0122654037550092
v 1.41506270665559e-05 0 -0.00066607299959287
v 0.908604919910431 0 0.0122654037550092
v 1.41506270665559e-05 -1 -0.00066607299959287
v 0.916255533695221 -1 0.011289618909359
v 2.72127599600935e-05 0 -0.000923102430533618
v 0.916255533695221 0 0.011289618909359
v 2.72127599600935e-05 -1 -0.000923102430533618
v 0.92346602678299 -1 0.0103618334978819
v 4.60293413198087e-05 0 -0.0011997491819784
v 0.92346602678299 0 0.0103618334978819
v 4.60293413198087e-05 -1 -0.0011997491819784
v 0.930254817008972 -1 0.00948102213442326
v 7.18032752047293e-05 0 -0.00149737694300711
v 0.930254817008972 0 0.00948102213442326
v 7.18032752047293e-05 -1 -0.00149737694300711
v 0.936640202999115 -1 0.00864600669592619
v 0.000105940409412142 0 -0.00181740475818515
v 0.936640202999115 0 0.00864600669592619
v 0.000105940409412142 -1 -0.00181740475818515
v 0.942640721797943 -1 0.00785548146814108
v 0.000150078616570681 0 -0.0021612998098135
v 0.942640721797943 0 0.00785548146814108
v 0.000150078616570681 -1 -0.0021612998098135
v 0.948274672031403 -1 0.00710803503170609
v 0.000206114040338434 0 -0.00253056362271309
v 0.948274672031403 0 0.00710803503170609
v 0.000206114040338434 -1 -0.00253056362271309
v 0.95356023311615 -1 0.00640217773616314
v 0.000276236009085551 0 -0.00292671890929341
v 0.95356023311615 0 0.00640217773616314
v 0.000276236009085551 -1 -0.00292671890929341
v 0.958515167236328 -1 0.0057363579981029
v 0.000362954306183383 0 -0.00335128861479461
v 0.958515167236328 0 0.0057363579981029
v 0.000362954306183383 -1 -0.00335128861479461
v 0.963156819343567 -1 0.00510898139327765
v 0.00046912845573388 0 -0.00380577123723924
v 0.963156819343567 0 0.00510898139327765
v 0.00046912845573388 -1 -0.00380577123723924
v 0.967502176761627 -1 0.00451842974871397
v 0.000597992271650583 0 -0.00429161079227924
v 0.967502176761627 0 0.00451842974871397
v 0.000597992271650583 -1 -0.00429161079227924
v 0.971567571163177 -1 0.0039630732499063
v 0.000753189320676029 0 -0.00481017725542188
v 0.971567571163177 0 0.0039630732499063
v 0.000753189320676029 -1 -0.00481017725542188
v 0.975368797779083 -1 0.00344128324650228
v 0.000938764249440283 0 -0.00536270951852202
v 0.975368797779083 0 0.00344128324650228
v 0.000938764249440283 -1 -0.00536270951852202
v 0.978921115398407 -1 0.00295144622214139
v 0.00115919311065227 0 -0.00595030002295971
v 0.978921115398407 0 0.00295144622214139
v 0.00115919311065227 -1 -0.00595030002295971
v 0.982239186763763 -1 0.00249196984805167
v 0.00141937786247581 0 -0.00657386006787419
v 0.982239186763763 0 0.00249196984805167
v 0.00141937786247581 -1 -0.00657386006787419
v 0.985336899757385 -1 0.00206129346042871
v 0.00172462302725762 0 -0.00723407650366426
v 0.985336899757385 0 0.00206129346042871
v 0.00172462302725762 -1 -0.00723407650366426
v 0.988227665424347 -1 0.00165789341554046
v 0.0020806232932955 0 -0.00793139729648829
v 0.988227665424347 0 0.00165789341554046
v 0.0020806232932955 -1 -0.00793139729648829
v 0.990924119949341 -1 0.00128028960898519
v 0.00249343411996961 0 -0.0086660198867321
v 0.990924119949341 0 0.00128028960898519
v 0.00249343411996961 -1 -0.0086660198867321
v 0.993438482284546 -1 0.00092704885173589
v 0.00296944170258939 0 -0.00943789072334766
v 0.993438482284546 0 0.00092704885173589
v 0.00296944170258939 -1 -0.00943789072334766
v 0.995782077312469 -1 0.000596788653638214
v 0.00351531989872456 0 -0.0102467136457562
v 0.995782077312469 0 0.000596788653638214
v 0.00351531989872456 -1 -0.0102467136457562
v 0.997965812683105 -1 0.000288179493509233
v 0.00413796724751592 0 -0.0110919270664454
v 0.997965812683105 0 0.000288179493509233
v 0.00413796724751592 -1 -0.0110919270664454
v 0.0048445500433445 0 -0.0119728241115808
v 0.0048445500433445 -1 -0.0119728241115808
v 0.00564248533919454 0 -0.0128885805606842
v 0.00564248533919454 -1 -0.0128885805606842
v 0.0065392623655498 0 -0.0138380983844399
v 0.0065392623655498 -1 -0.0138380983844399
v 0.00754278665408492 0 -0.0148204304277897
v 0.00754278665408492 -1 -0.0148204304277897
v 0.00866097770631313 0 -0.0158343259245157
v 0.00866097770631313 -1 -0.0158343259245157
v 0.00990227982401848 0 -0.0168788116425276
v 0.00990227982401848 -1 -0.0168788116425276
v 0.0112751601263881 0 -0.0179526265710592
v 0.0112751601263881 -1 -0.0179526265710592
v 0.0127887176349759 0 -0.0190547257661819
v 0.0127887176349759 -1 -0.0190547257661819
v 0.0144522013142705 0 -0.020184027031064
v 0.0144522013142705 -1 -0.020184027031064
v 0.016275517642498 0 -0.0213394314050674
v 0.016275517642498 -1 -0.0213394314050674
v 0.0182688571512699 0 -0.0225199013948441
v 0.0182688571512699 -1 -0.0225199013948441
v 0.0204430371522903 0 -0.0237243622541428
v 0.0204430371522903 -1 -0.0237243622541428
v 0.0228094384074211 0 -0.0249517019838095
v 0.0228094384074211 -1 -0.0249517019838095
v 0.0253799986094236 0 -0.0262007638812065
v 0.0253799986094236 -1 -0.0262007638812065
v 0.0281672384589911 0 -0.0274703279137611
v 0.0281672384589911 -1 -0.0274703279137611
v 0.031184334307909 0 -0.0287590529769659
v 0.031184334307909 -1 -0.0287590529769659
v 0.034445084631443 0 -0.0300654731690884
v 0.034445084631443 -1 -0.0300654731690884
v 0.0379639118909836 0 -0.0313879698514938
v 0.0379639118909836 -1 -0.0313879698514938
v 0.0417558774352074 0 -0.0327247232198715
v 0.0417558774352074 -1 -0.0327247232198715
v 0.0458366312086582 0 -0.0340737141668797
v 0.0458366312086582 -1 -0.0340737141668797
v 0.0502224117517471 0 -0.0354326665401459
v 0.0502224117517471 -1 -0.0354326665401459
v 0.054930005222559 0 -0.0367990396916866
v 0.054930005222559 -1 -0.0367990396916866
v 0.0599766708910465 0 -0.0381699949502945
v 0.0599766708910465 -1 -0.0381699949502945
v 0.0653800964355469 0 -0.0395423620939255
v 0.0653800964355469 -1 -0.0395423620939255
v 0.0711583122611046 0 -0.0409126430749893
v 0.0711583122611046 -1 -0.0409126430749893
v 0.077329583466053 0 -0.0422769598662853
v 0.077329583466053 -1 -0.0422769598662853
v 0.083912305533886 0 -0.0436310656368732
v 0.083912305533886 -1 -0.0436310656368732
v 0.0909248739480972 0 -0.0449703149497509
v 0.0909248739480972 -1 -0.0449703149497509
v 0.0983855128288269 0 -0.0462896749377251
v 0.0983855128288269 -1 -0.0462896749377251
v 0.106312125921249 0 -0.0475837141275406
v 0.106312125921249 -1 -0.0475837141275406
v 0.114722065627575 0 -0.0488466247916222
v 0.114722065627575 -1 -0.0488466247916222
v 0.123631961643696 0 -0.0500722303986549
v 0.123631961643696 -1 -0.0500722303986549
v 0.133057460188866 0 -0.0512540265917778
v 0.133057460188866 -1 -0.0512540265917778
v 0.14301298558712 0 -0.0523852147161961
v 0.14301298558712 -1 -0.0523852147161961
v 0.153511464595795 0 -0.0534587614238262
v 0.153511464595795 -1 -0.0534587614238262
v 0.16456401348114 0 -0.0544674545526505
v 0.16456401348114 -1 -0.0544674545526505
v 0.176179736852646 0 -0.0554039962589741
v 0.176179736852646 -1 -0.0554039962589741
v 0.188365310430527 0 -0.0562610812485218
v 0.188365310430527 -1 -0.0562610812485218
v 0.201124802231789 0 -0.0570315048098564
v 0.201124802231789 -1 -0.0570315048098564
v 0.214459270238876 0 -0.0577082745730877
v 0.214459270238876 -1 -0.0577082745730877
v 0.228366568684578 0 -0.0582847222685814
v 0.228366568684578 -1 -0.0582847222685814
v 0.242841064929962 0 -0.0587546452879906
v 0.242841064929962 -1 -0.0587546452879906
v 0.257873356342316 0 -0.0591124184429646
v 0.257873356342316 -1 -0.0591124184429646
v 0.273450136184692 0 -0.0593531168997288
v 0.273450136184692 -1 -0.0593531168997288
v 0.28955402970314 0 -0.0594726502895355
v 0.28955402970314 -1 -0.0594726502895355
v 0.306163549423218 0 -0.0594678483903408
v 0.306163549423218 -1 -0.0594678483903408
v 0.323252826929092 0 -0.0593365617096424
v 0.323252826929092 -1 -0.0593365617096424
v 0.340792000293732 0 -0.0590777434408665
v 0.340792000293732 -1 -0.0590777434408665
v 0.358746975660324 0 -0.0586914829909801
v 0.358746975660324 -1 -0.0586914829909801
v 0.377079784870148 0 -0.0581790432333946
v 0.377079784870148 -1 -0.0581790432333946
v 0.395748764276505 0 -0.0575428530573845
v 0.395748764276505 -1 -0.0575428530573845
v 0.414708882570267 0 -0.0567864887416363
v 0.414708882570267 -1 -0.0567864887416363
v 0.433912068605423 0 -0.0559145994484425
v 0.433912068605423 -1 -0.0559145994484425
v 0.453307747840881 0 -0.054932851344347
v 0.453307747840881 -1 -0.054932851344347
v 0.472843319177628 0 -0.0538478158414364
v 0.472843319177628 -1 -0.0538478158414364
v 0.492464601993561 0 -0.0526668429374695
v 0.492464601993561 -1 -0.0526668429374695
v 0.512116611003876 0 -0.0513979494571686
v 0.512116611003876 -1 -0.0513979494571686
v 0.531743943691254 0 -0.0500496700406075
v 0.531743943691254 -1 -0.0500496700406075
v 0.551291584968567 0 -0.0486309081315994
v 0.551291584968567 -1 -0.0486309081315994
v 0.570705413818359 0 -0.0471508093178272
v 0.570705413818359 -1 -0.0471508093178272
v 0.589932799339294 0 -0.045618612319231
v 0.589932799339294 -1 -0.045618612319231
v 0.608923077583313 0 -0.0440435297787189
v 0.608923077583313 -1 -0.0440435297787189
v 0.627628266811371 0 -0.0424346290528774
v 0.627628266811371 -1 -0.0424346290528774
v 0.646003305912018 0 -0.0408007316291332
v 0.646003305912018 -1 -0.0408007316291332
v 0.664006590843201 0 -0.0391503237187862
v 0.664006590843201 -1 -0.0391503237187862
v 0.681600093841553 0 -0.0374914929270744
v 0.681600093841553 -1 -0.0374914929270744
v 0.698749959468842 0 -0.0358318574726582
v 0.698749959468842 -1 -0.0358318574726582
v 0.715426206588745 0 -0.0341785214841366
v 0.715426206588745 -1 -0.0341785214841366
v 0.731603145599365 0 -0.0325380638241768
v 0.731603145599365 -1 -0.0325380638241768
v 0.747259438037872 0 -0.0309164896607399
v 0.747259438037872 -1 -0.0309164896607399
v 0.762377738952637 0 -0.0293192379176617
v 0.762377738952637 -1 -0.0293192379176617
v 0.776944935321808 0 -0.027751175686717
v 0.776944935321808 -1 -0.027751175686717
v 0.790951788425446 0 -0.0262166019529104
v 0.790951788425446 -1 -0.0262166019529104
v 0.804392755031586 0 -0.0247192606329918
v 0.804392755031586 -1 -0.0247192606329918
v 0.817265808582306 0 -0.0232623629271984
v 0.817265808582306 -1 -0.0232623629271984
v 0.829572141170502 0 -0.0218485947698355
v 0.829572141170502 -1 -0.0218485947698355
v 0.841315984725952 0 -0.0204801559448242
v 0.841315984725952 -1 -0.0204801559448242
v 0.852504134178162 0 -0.019158786162734
v 0.852504134178162 -1 -0.019158786162734
v 0.863145709037781 0 -0.0178857818245888
v 0.863145709037781 -1 -0.0178857818245888
v 0.873252034187317 0 -0.0166620425879955
v 0.873252034187317 -1 -0.0166620425879955
v 0.882836043834686 0 -0.0154880965128541
v 0.882836043834686 -1 -0.0154880965128541
v 0.891912221908569 0 -0.0143641317263246
v 0.891912221908569 -1 -0.0143641317263246
v 0.900496244430542 0 -0.0132900308817625
v 0.900496244430542 -1 -0.0132900308817625
v 0.908604919910431 0 -0.0122654037550092
v 0.908604919910431 -1 -0.0122654037550092
v 0.916255533695221 0 -0.011289618909359
v 0.916255533695221 -1 -0.011289618909359
v 0.92346602678299 0 -0.0103618334978819
v 0.92346602678299 -1 -0.0103618334978819
v 0.930254817008972 0 -0.00948102213442326
v 0.930254817008972 -1 -0.00948102213442326
v 0.936640202999115 0 -0.00864600669592619
v 0.936640202999115 -1 -0.00864600669592619
v 0.942640721797943 0 -0.00785548146814108
v 0.942640721797943 -1 -0.00785548146814108
v 0.948274672031403 0 -0.00710803503170609
v 0.948274672031403 -1 -0.00710803503170609
v 0.95356023311615 0 -0.00640217773616314
v 0.95356023311615 -1 -0.00640217773616314
v 0.958515167236328 0 -0.0057363579981029
v 0.958515167236328 -1 -0.0057363579981029
v 0.963156819343567 0 -0.00510898139327765
v 0.963156819343567 -1 -0.00510898139327765
v 0.967502176761627 0 -0.00451842974871397
v 0.967502176761627 -1 -0.00451842974871397
v 0.971567571163177 0 -0.0039630732499063
v 0.971567571163177 -1 -0.0039630732499063
v 0.975368797779083 0 -0.00344128324650228
v 0.975368797779083 -1 -0.00344128324650228
v 0.978921115398407 0 -0.00295144622214139
v 0.978921115398407 -1 -0.00295144622214139
v 0.982239186763763 0 -0.00249196984805167
v 0.982239186763763 -1 -0.00249196984805167
v 0.985336899757385 0 -0.00206129346042871
v 0.985336899757385 -1 -0.00206129346042871
v 0.988227665424347 0 -0.00165789341554046
v 0.988227665424347 -1 -0.00165789341554046
v 0.990924119949341 0 -0.00128028960898519
v 0.990924119949341 -1 -0.00128028960898519
v 0.993438482284546 0 -0.00092704885173589
v 0.993438482284546 -1 -0.00092704885173589
v 0.995782077312469 0 -0.000596788653638214
v 0.995782077312469 -1 -0.000596788653638214
v 0.997965812683105 0 -0.000288179493509233
v 0.997965812683105 -1 -0.000288179493509233
# </points>

# <edges count="513">
l 2 1
l 3 4
l 5 6
l 6 7
l 4 8
l 9 3
l 10 5
l 7 11
l 8 12
l 13 9
l 14 10
l 11 15
l 12 16
l 17 13
l 18 14
l 15 19
l 16 20
l 21 17
l 22 18
l 19 23
l 20 24
l 25 21
l 26 22
l 23 27
l 24 28
l 29 25
l 30 26
l 27 31
l 28 32
l 33 29
l 34 30
l 31 35
l 32 36
l 37 33
l 38 34
l 35 39
l 36 40
l 41 37
l 42 38
l 39 43
l 40 44
l 45 41
l 46 42
l 43 47
l 44 48
l 49 45
l 50 46
l 47 51
l 48 52
l 53 49
l 54 50
l 51 55
l 52 56
l 57 53
l 58 54
l 55 59
l 56 60
l 61 57
l 62 58
l 59 63
l 60 64
l 65 61
l 66 62
l 63 67
l 64 68
l 69 65
l 70 66
l 67 71
l 68 72
l 73 69
l 74 70
l 71 75
l 72 76
l 77 73
l 78 74
l 75 79
l 76 80
l 81 77
l 82 78
l 79 83
l 80 84
l 85 81
l 86 82
l 83 87
l 84 88
l 89 85
l 90 86
l 87 91
l 88 92
l 93 89
l 94 90
l 91 95
l 92 96
l 97 93
l 98 94
l 95 99
l 96 100
l 101 97
l 102 98
l 99 103
l 100 104
l 105 101
l 106 102
l 103 107
l 104 108
l 109 105
l 110 106
l 107 111
l 108 112
l 113 109
l 114 110
l 111 115
l 112 116
l 117 113
l 118 114
l 115 119
l 116 120
l 121 117
l 122 118
l 119 123
l 120 124
l 125 121
l 126 122
l 123 127
l 124 128
l 129 125
l 130 126
l 127 131
l 128 132
l 133 129
l 134 130
l 131 135
l 132 136
l 137 133
l 138 134
l 135 139
l 136 140
l 141 137
l 142 138
l 139 143
l 140 144
l 145 141
l 146 142
l 143 147
l 144 148
l 149 145
l 150 146
l 147 151
l 148 152
l 153 149
l 154 150
l 151 155
l 152 156
l 157 153
l 158 154
l 155 159
l 156 160
l 161 157
l 162 158
l 159 163
l 160 164
l 165 161
l 166 162
l 163 167
l 164 168
l 169 165
l 170 166
l 167 171
l 168 172
l 173 169
l 174 170
l 171 175
l 172 176
l 177 173
l 178 174
l 175 179
l 176 180
l 181 177
l 182 178
l 179 183
l 180 184
l 185 181
l 186 182
l 183 187
l 184 188
l 189 185
l 190 186
l 187 191
l 188 192
l 193 189
l 194 190
l 191 195
l 192 196
l 197 193
l 198 194
l 195 199
l 196 200
l 201 197
l 202 198
l 199 203
l 200 204
l 205 201
l 206 202
l 203 207
l 204 208
l 209 205
l 210 206
l 207 211
l 208 212
l 213 209
l 214 210
l 211 215
l 212 216
l 217 213
l 218 214
l 215 219
l 216 220
l 221 217
l 222 218
l 219 223
l 220 224
l 225 221
l 226 222
l 223 227
l 224 228
l 229 225
l 230 226
l 227 231
l 228 232
l 233 229
l 234 230
l 231 235
l 232 236
l 237 233
l 238 234
l 235 239
l 236 240
l 241 237
l 242 238
l 239 243
l 240 244
l 245 241
l 246 242
l 243 247
l 244 248
l 249 245
l 250 246
l 247 251
l 248 252
l 253 249
l 254 250
l 251 255
l 252 256
l 257 253
l 258 254
l 255 259
l 256 260
l 261 257
l 262 258
l 259 263
l 260 264
l 265 261
l 266 262
l 263 267
l 264 268
l 269 265
l 270 266
l 267 271
l 268 272
l 273 269
l 274 270
l 271 275
l 272 276
l 277 273
l 278 274
l 275 279
l 276 280
l 281 277
l 282 278
l 279 283
l 280 284
l 285 281
l 286 282
l 283 287
l 284 288
l 289 285
l 290 286
l 287 291
l 288 292
l 293 289
l 294 290
l 291 295
l 292 296
l 297 293
l 298 294
l 295 299
l 296 300
l 301 297
l 302 298
l 299 303
l 300 304
l 1 301
l 305 302
l 303 2
l 304 306
l 307 305
l 306 308
l 309 307
l 308 310
l 311 309
l 310 312
l 313 311
l 312 314
l 315 313
l 314 316
l 317 315
l 316 318
l 319 317
l 318 320
l 321 319
l 320 322
l 323 321
l 322 324
l 325 323
l 324 326
l 327 325
l 326 328
l 329 327
l 328 330
l 331 329
l 330 332
l 333 331
l 332 334
l 335 333
l 334 336
l 337 335
l 336 338
l 339 337
l 338 340
l 341 339
l 340 342
l 343 341
l 342 344
l 345 343
l 344 346
l 347 345
l 346 348
l 349 347
l 348 350
l 351 349
l 350 352
l 353 351
l 352 354
l 355 353
l 354 356
l 357 355
l 356 358
l 359 357
l 358 360
l 361 359
l 360 362
l 363 361
l 362 364
l 365 363
l 364 366
l 367 365
l 366 368
l 369 367
l 368 370
l 371 369
l 370 372
l 373 371
l 372 374
l 375 373
l 374 376
l 377 375
l 376 378
l 379 377
l 378 380
l 381 379
l 380 382
l 383 381
l 382 384
l 385 383
l 384 386
l 387 385
l 386 388
l 389 387
l 388 390
l 391 389
l 390 392
l 393 391
l 392 394
l 395 393
l 394 396
l 397 395
l 396 398
l 399 397
l 398 400
l 401 399
l 400 402
l 403 401
l 402 404
l 405 403
l 404 406
l 407 405
l 406 408
l 409 407
l 408 410
l 411 409
l 410 412
l 413 411
l 412 414
l 415 413
l 414 416
l 417 415
l 416 418
l 419 417
l 418 420
l 421 419
l 420 422
l 423 421
l 422 424
l 425 423
l 424 426
l 427 425
l 426 428
l 429 427
l 428 430
l 431 429
l 430 432
l 433 431
l 432 434
l 435 433
l 434 436
l 437 435
l 436 438
l 439 437
l 438 440
l 441 439
l 440 442
l 443 441
l 442 444
l 445 443
l 444 446
l 447 445
l 446 448
l 449 447
l 448 450
l 451 449
l 450 452
l 453 451
l 452 454
l 455 453
l 454 456
l 457 455
l 456 458
l 459 457
l 458 460
l 461 459
l 460 462
l 463 461
l 462 464
l 465 463
l 464 466
l 467 465
l 466 468
l 469 467
l 468 470
l 471 469
l 470 472
l 473 471
l 472 474
l 475 473
l 474 476
l 477 475
l 476 478
l 479 477
l 478 480
l 481 479
l 480 482
l 483 481
l 482 484
l 485 483
l 484 486
l 487 485
l 486 488
l 489 487
l 488 490
l 491 489
l 490 492
l 493 491
l 492 494
l 495 493
l 494 496
l 497 495
l 496 498
l 499 497
l 498 500
l 501 499
l 500 502
l 503 501
l 502 504
l 505 503
l 504 506
l 507 505
l 506 508
l 509 507
l 508 510
l 511 509
l 510 512
l 2 511
l 512 1
# </edges>
