cp -r $FOAM_TUTORIALS/mesh/snappyHexMesh/airfoilWithLayers . 
source $WM_PROJECT_DIR/bin/tools/RunFunctions 
runApplication surfaceFeatureExtract
foamGetDict snappyHexMeshDict //comments in Dict file

snappyHexMeshDict //operações do snappyHexMesh